1.00000 0.00000
2.00000 0.00004
3.00000 0.00027
4.00000 0.00120
5.00000 0.00415
6.00000 0.01152
7.00000 0.02634
8.00000 0.05049
9.00000 0.08228
10.00000 0.11519
11.00000 0.13962
12.00000 0.14738
13.00000 0.13604
14.00000 0.11013
15.00000 0.07831
16.00000 0.04895
17.00000 0.02687
18.00000 0.01294
19.00000 0.00545
20.00000 0.00200
21.00000 0.00063
22.00000 0.00017
23.00000 0.00004
24.00000 0.00001
25.00000 0.00000
26.00000 0.00000
27.00000 0.00000
28.00000 0.00000
29.00000 0.00000
