annee france allemagne espagne italie
1975 76.28722 57.42832 68.37022 68.48497
1976 83.3909 61.29565 71.27701 76.98142
1977 84.91192 62.89258 75.16499 77.8147
1978 86.82163 63.99972 77.12849 79.29526
1979 90.56219 67.22247 77.56913 84.58508
1980 89.62316 67.21671 77.94404 89.26367
1981 88.68404 65.98872 77.2932 87.86366
1982 87.97029 63.84406 76.33714 84.92638
1983 88.0304 64.27068 78.41113 82.78026
1984 89.54803 66.21356 79.23009 85.472
1985 89.76807 69.3902 80.57907 86.69056
1986 92.0471 70.66431 83.14345 90.20984
1987 93.65533 70.93528 86.91986 92.92886
1988 96.99217 73.48927 89.72321 98.80341
1989 100.3548 77.10983 94.28332 102.3863
1990 110.6409 81.09937 93.94345 102.1772
1991 109.2992 83.42851 93.35006 101.2058
1992 106.7301 81.49074 90.44416 100.1424
1993 101.9367 75.39421 86.22775 97.68046
1994 104.4517 77.60029 92.92004 103.6426
1995 106.7659 78.122 97.51711 109.789
1996 105.1334 78.28596 96.3036 107.9551
1997 108.2526 80.70818 103.1031 112.1253
1998 110.8884 83.66701 108.6683 113.5153
1999 111.6359 84.64335 111.6195 113.2306
2000 114.396 89.41325 116.5209 118.0456
2001 114.1126 89.74015 114.8808 116.3038
2002 111.4959 88.74267 115.0121 114.5704
2003 109.7101 89.01089 116.5962 113.9089
2004 111.8618 91.72674 118.3678 113.6744
2005 111.4676 95.24728 119.3061 112.971
2006 112.3968 101.0813 123.9878 117.1496
2007 113.6793 108.0805 126.7853 119.2933
2008 110.3434 108.3068 117.2631 114.8635
2009 95.82996 89.55574 99.07624 93.53542
2010 100 100 100 100
2011 102.4025 108.7259 98.53408 101.3147
2012 100.1475 108.0721 92.07 95.02596
2013 99.37416 108.399 90.61375 92.12862
2014 98.50166 110.4862 91.73417 91.5927
